<svg width="32" height="32" viewBox="0 0 32 32" fill="none" xmlns="http://www.w3.org/2000/svg">
<path d="M17.2888 27.2453L29.4667 5.77868C29.7778 5.24535 29.6 4.5342 29.0222 4.22316C28.8444 4.13431 28.6667 4.08983 28.4444 4.08983L3.77771 4.08972C3.02219 4.08972 2.35552 4.71191 2.35552 5.51191C2.35552 5.77858 2.4 6.00076 2.53334 6.22306C2.62219 6.35639 2.71115 6.48972 2.84448 6.57858L12.3557 14.6231L14.6666 26.801C14.7999 27.5565 15.5555 28.0455 16.3111 27.9121C16.7111 27.8676 17.0666 27.601 17.2888 27.2455V27.2453ZM13.5555 12.5341L6.22214 6.35628H24.1776L13.5555 12.5341ZM14.7111 14.5341L25.3778 8.31201L16.4887 23.9563L14.7111 14.5341Z" fill="#2C1074"/>
</svg>
